Experiments/Buck Oscillo Data/NewFile10.csv

X,CH1,CH2,CH3,Start,Increment
Sequence,Volt,Volt,Volt,-1.20E-04,2.00E-07
0,1.78E+00,1.73E+01,1.85E+01,,
1,1.72E+00,1.69E+01,1.64E+01,,
2,1.78E+00,1.69E+01,1.68E+01,,
3,1.72E+00,1.71E+01,1.71E+01,,
4,1.78E+00,1.70E+01,1.69E+01,,
5,1.74E+00,1.71E+01,1.71E+01,,
6,1.78E+00,1.71E+01,1.71E+01,,
7,1.74E+00,1.72E+01,1.70E+01,,
8,1.78E+00,1.71E+01,1.70E+01,,
9,1.72E+00,1.72E+01,1.71E+01,,
10,1.76E+00,1.71E+01,1.71E+01,,
11,1.78E+00,1.73E+01,1.70E+01,,
12,1.78E+00,1.72E+01,1.70E+01,,
13,1.74E+00,1.73E+01,1.70E+01,,
14,1.78E+00,1.73E+01,1.71E+01,,
15,1.74E+00,1.70E+01,1.67E+01,,
16,1.70E+00,1.65E+01,1.64E+01,,
17,1.82E+00,1.77E+01,1.72E+01,,
18,1.78E+00,1.73E+01,1.69E+01,,
19,1.74E+00,1.70E+01,1.67E+01,,
20,1.78E+00,1.70E+01,1.67E+01,,
21,1.74E+00,1.72E+01,1.68E+01,,
22,1.76E+00,1.72E+01,1.67E+01,,
23,1.78E+00,1.71E+01,1.68E+01,,
24,1.76E+00,1.70E+01,1.67E+01,,
25,1.78E+00,1.72E+01,1.68E+01,,
26,1.78E+00,1.72E+01,1.69E+01,,
27,1.74E+00,1.70E+01,1.67E+01,,
28,1.78E+00,1.71E+01,1.68E+01,,
29,1.74E+00,1.70E+01,1.67E+01,,
30,1.76E+00,1.71E+01,1.68E+01,,
31,1.78E+00,1.70E+01,1.67E+01,,
32,1.78E+00,1.69E+01,1.66E+01,,
33,1.76E+00,1.70E+01,1.68E+01,,
34,1.78E+00,1.71E+01,1.66E+01,,
35,1.74E+00,1.69E+01,1.67E+01,,
36,1.78E+00,1.70E+01,1.67E+01,,
37,1.76E+00,1.69E+01,1.66E+01,,
38,1.76E+00,1.70E+01,1.67E+01,,
39,1.78E+00,1.69E+01,1.66E+01,,
40,1.78E+00,1.69E+01,1.67E+01,,
41,1.74E+00,1.68E+01,1.65E+01,,
42,1.80E+00,1.69E+01,1.67E+01,,
43,1.72E+00,1.68E+01,1.65E+01,,
44,1.30E+00,1.38E+01,1.86E+01,,
45,2.06E+00,1.89E+01,1.35E+01,,
46,1.90E+00,1.78E+01,1.79E+01,,
47,1.66E+00,1.58E+01,1.62E+01,,
48,1.72E+00,1.66E+01,1.66E+01,,
49,1.78E+00,1.70E+01,1.70E+01,,
50,1.78E+00,1.68E+01,1.69E+01,,
51,1.72E+00,1.67E+01,1.67E+01,,
52,1.72E+00,1.67E+01,1.67E+01,,
53,1.78E+00,1.68E+01,1.69E+01,,
54,1.78E+00,1.67E+01,1.68E+01,,
55,1.72E+00,1.66E+01,1.69E+01,,
56,1.78E+00,1.67E+01,1.69E+01,,
57,1.72E+00,1.66E+01,1.68E+01,,
58,1.78E+00,1.67E+01,1.70E+01,,
59,1.72E+00,1.65E+01,1.69E+01,,
60,2.10E+00,1.89E+01,1.35E+01,,
61,9.40E-01,1.38E+01,1.85E+01,,
62,1.38E+00,1.38E+01,1.42E+01,,
63,2.28E+00,1.89E+01,1.86E+01,,
64,1.80E+00,1.71E+01,1.64E+01,,
65,1.70E+00,1.62E+01,1.75E+01,,
66,1.72E+00,1.66E+01,1.73E+01,,
67,1.78E+00,1.69E+01,1.70E+01,,
68,1.78E+00,1.69E+01,1.72E+01,,
69,1.74E+00,1.67E+01,1.70E+01,,
70,1.78E+00,1.67E+01,1.72E+01,,
71,1.72E+00,1.69E+01,1.70E+01,,
72,1.78E+00,1.69E+01,1.72E+01,,
73,1.72E+00,1.68E+01,1.71E+01,,
74,1.78E+00,1.69E+01,1.71E+01,,
75,1.74E+00,1.68E+01,1.72E+01,,
76,1.78E+00,1.69E+01,1.71E+01,,
77,1.72E+00,1.70E+01,1.73E+01,,
78,1.78E+00,1.69E+01,1.72E+01,,
79,1.74E+00,1.70E+01,1.73E+01,,
80,1.74E+00,1.66E+01,1.56E+01,,
81,1.80E+00,1.71E+01,1.84E+01,,
82,1.78E+00,1.73E+01,1.84E+01,,
83,1.72E+00,1.69E+01,1.63E+01,,
84,1.78E+00,1.71E+01,1.68E+01,,
85,1.74E+00,1.70E+01,1.71E+01,,
86,1.78E+00,1.70E+01,1.70E+01,,
87,1.76E+00,1.72E+01,1.71E+01,,
88,1.76E+00,1.72E+01,1.70E+01,,
89,1.78E+00,1.70E+01,1.71E+01,,
90,1.76E+00,1.71E+01,1.71E+01,,
91,1.78E+00,1.73E+01,1.70E+01,,
92,1.76E+00,1.71E+01,1.71E+01,,
93,1.78E+00,1.73E+01,1.70E+01,,
94,1.76E+00,1.72E+01,1.71E+01,,
95,1.80E+00,1.73E+01,1.69E+01,,
96,1.78E+00,1.73E+01,1.71E+01,,
97,1.72E+00,1.70E+01,1.67E+01,,
98,1.70E+00,1.64E+01,1.64E+01,,
99,1.84E+00,1.77E+01,1.72E+01,,
100,1.76E+00,1.73E+01,1.68E+01,,
101,1.78E+00,1.71E+01,1.67E+01,,
102,1.76E+00,1.71E+01,1.68E+01,,
103,1.80E+00,1.72E+01,1.67E+01,,
104,1.76E+00,1.72E+01,1.66E+01,,
105,1.80E+00,1.71E+01,1.69E+01,,
106,1.76E+00,1.70E+01,1.68E+01,,
107,1.78E+00,1.72E+01,1.68E+01,,
108,1.76E+00,1.70E+01,1.69E+01,,
109,1.78E+00,1.72E+01,1.67E+01,,
110,1.76E+00,1.71E+01,1.68E+01,,
111,1.78E+00,1.70E+01,1.67E+01,,
112,1.78E+00,1.71E+01,1.67E+01,,
113,1.76E+00,1.70E+01,1.68E+01,,
114,1.78E+00,1.69E+01,1.66E+01,,
115,1.72E+00,1.71E+01,1.67E+01,,
116,1.76E+00,1.70E+01,1.66E+01,,
117,1.78E+00,1.69E+01,1.67E+01,,
118,1.76E+00,1.70E+01,1.67E+01,,
119,1.80E+00,1.69E+01,1.66E+01,,
120,1.78E+00,1.70E+01,1.66E+01,,
121,1.76E+00,1.68E+01,1.67E+01,,
122,1.76E+00,1.69E+01,1.65E+01,,
123,1.78E+00,1.68E+01,1.67E+01,,
124,1.78E+00,1.69E+01,1.65E+01,,
125,1.76E+00,1.67E+01,1.67E+01,,
126,1.30E+00,1.38E+01,1.86E+01,,
127,2.06E+00,1.89E+01,1.35E+01,,
128,1.88E+00,1.76E+01,1.76E+01,,
129,1.66E+00,1.57E+01,1.63E+01,,
130,1.72E+00,1.66E+01,1.67E+01,,
131,1.80E+00,1.70E+01,1.70E+01,,
132,1.78E+00,1.68E+01,1.69E+01,,
133,1.72E+00,1.67E+01,1.67E+01,,
134,1.76E+00,1.68E+01,1.68E+01,,
135,1.78E+00,1.66E+01,1.69E+01,,
136,1.76E+00,1.68E+01,1.68E+01,,
137,1.78E+00,1.66E+01,1.69E+01,,
138,1.80E+00,1.65E+01,1.68E+01,,
139,1.74E+00,1.66E+01,1.69E+01,,
140,1.78E+00,1.67E+01,1.69E+01,,
141,1.74E+00,1.65E+01,1.69E+01,,
142,2.24E+00,1.89E+01,1.35E+01,,
143,9.60E-01,1.38E+01,1.86E+01,,
144,1.46E+00,1.43E+01,1.86E+01,,
145,2.24E+00,1.89E+01,1.42E+01,,
146,1.80E+00,1.61E+01,1.64E+01,,
147,1.70E+00,1.70E+01,1.76E+01,,
148,1.78E+00,1.66E+01,1.70E+01,,
149,1.72E+00,1.68E+01,1.72E+01,,
150,1.76E+00,1.67E+01,1.70E+01,,
151,1.78E+00,1.68E+01,1.72E+01,,
152,1.78E+00,1.68E+01,1.70E+01,,
153,1.72E+00,1.67E+01,1.71E+01,,
154,1.76E+00,1.67E+01,1.71E+01,,
155,1.78E+00,1.69E+01,1.72E+01,,
156,1.76E+00,1.68E+01,1.71E+01,,
157,1.78E+00,1.69E+01,1.72E+01,,
158,1.76E+00,1.68E+01,1.71E+01,,
159,1.78E+00,1.69E+01,1.73E+01,,
160,1.76E+00,1.69E+01,1.73E+01,,
161,1.78E+00,1.70E+01,1.72E+01,,
162,1.80E+00,1.70E+01,1.56E+01,,
163,1.74E+00,1.66E+01,1.84E+01,,
164,1.80E+00,1.72E+01,1.84E+01,,
165,1.72E+00,1.69E+01,1.64E+01,,
166,1.78E+00,1.69E+01,1.68E+01,,
167,1.76E+00,1.71E+01,1.71E+01,,
168,1.78E+00,1.70E+01,1.70E+01,,
169,1.74E+00,1.71E+01,1.71E+01,,
170,1.78E+00,1.70E+01,1.71E+01,,
171,1.76E+00,1.72E+01,1.70E+01,,
172,1.78E+00,1.71E+01,1.70E+01,,
173,1.74E+00,1.72E+01,1.71E+01,,
174,1.74E+00,1.71E+01,1.70E+01,,
175,1.80E+00,1.72E+01,1.71E+01,,
176,1.76E+00,1.71E+01,1.70E+01,,
177,1.80E+00,1.73E+01,1.69E+01,,
178,1.80E+00,1.73E+01,1.70E+01,,
179,1.72E+00,1.70E+01,1.67E+01,,
180,1.70E+00,1.65E+01,1.64E+01,,
181,1.84E+00,1.76E+01,1.72E+01,,
182,1.76E+00,1.73E+01,1.68E+01,,
183,1.80E+00,1.71E+01,1.67E+01,,
184,1.76E+00,1.70E+01,1.68E+01,,
185,1.80E+00,1.72E+01,1.67E+01,,
186,1.80E+00,1.72E+01,1.67E+01,,
187,1.76E+00,1.71E+01,1.68E+01,,
188,1.76E+00,1.72E+01,1.68E+01,,
189,1.80E+00,1.71E+01,1.69E+01,,
190,1.76E+00,1.71E+01,1.67E+01,,
191,1.80E+00,1.70E+01,1.68E+01,,
192,1.76E+00,1.71E+01,1.68E+01,,
193,1.80E+00,1.70E+01,1.67E+01,,
194,1.76E+00,1.71E+01,1.66E+01,,
195,1.78E+00,1.70E+01,1.68E+01,,
196,1.76E+00,1.70E+01,1.66E+01,,
197,1.78E+00,1.69E+01,1.67E+01,,
198,1.76E+00,1.70E+01,1.66E+01,,
199,1.80E+00,1.69E+01,1.67E+01,,
200,1.76E+00,1.70E+01,1.67E+01,,
201,1.80E+00,1.69E+01,1.66E+01,,
202,1.76E+00,1.70E+01,1.66E+01,,
203,1.80E+00,1.68E+01,1.67E+01,,
204,1.76E+00,1.69E+01,1.66E+01,,
205,1.78E+00,1.68E+01,1.65E+01,,
206,1.76E+00,1.69E+01,1.65E+01,,
207,1.78E+00,1.68E+01,1.67E+01,,
208,1.32E+00,1.38E+01,1.86E+01,,
209,2.10E+00,1.89E+01,1.35E+01,,
210,1.92E+00,1.76E+01,1.78E+01,,
211,1.66E+00,1.58E+01,1.62E+01,,
212,1.72E+00,1.70E+01,1.67E+01,,
213,1.80E+00,1.66E+01,1.70E+01,,
214,1.76E+00,1.68E+01,1.69E+01,,
215,1.80E+00,1.67E+01,1.67E+01,,
216,1.76E+00,1.66E+01,1.68E+01,,
217,1.80E+00,1.67E+01,1.67E+01,,
218,1.76E+00,1.67E+01,1.68E+01,,
219,1.80E+00,1.66E+01,1.69E+01,,
220,1.78E+00,1.66E+01,1.69E+01,,
221,1.74E+00,1.67E+01,1.68E+01,,
222,1.76E+00,1.67E+01,1.68E+01,,
223,1.78E+00,1.65E+01,1.69E+01,,
224,2.24E+00,1.89E+01,1.35E+01,,
225,1.00E+00,1.38E+01,1.86E+01,,
226,1.34E+00,1.38E+01,1.39E+01,,
227,2.20E+00,1.89E+01,1.86E+01,,
228,1.80E+00,1.71E+01,1.65E+01,,
229,1.70E+00,1.61E+01,1.76E+01,,
230,1.74E+00,1.65E+01,1.70E+01,,
231,1.80E+00,1.69E+01,1.72E+01,,
232,1.78E+00,1.66E+01,1.71E+01,,
233,1.76E+00,1.68E+01,1.70E+01,,
234,1.76E+00,1.68E+01,1.72E+01,,
235,1.80E+00,1.67E+01,1.71E+01,,
236,1.76E+00,1.67E+01,1.71E+01,,
237,1.80E+00,1.68E+01,1.72E+01,,
238,1.76E+00,1.68E+01,1.71E+01,,
239,1.80E+00,1.69E+01,1.73E+01,,
240,1.76E+00,1.69E+01,1.72E+01,,
241,1.80E+00,1.68E+01,1.73E+01,,
242,1.76E+00,1.68E+01,1.71E+01,,
243,1.80E+00,1.70E+01,1.73E+01,,
244,1.80E+00,1.66E+01,1.55E+01,,
245,1.72E+00,1.70E+01,1.84E+01,,
246,1.76E+00,1.73E+01,1.82E+01,,
247,1.80E+00,1.69E+01,1.64E+01,,
248,1.76E+00,1.69E+01,1.69E+01,,
249,1.80E+00,1.70E+01,1.70E+01,,
250,1.76E+00,1.69E+01,1.69E+01,,
251,1.80E+00,1.71E+01,1.71E+01,,
252,1.76E+00,1.70E+01,1.69E+01,,
253,1.80E+00,1.72E+01,1.71E+01,,
254,1.76E+00,1.71E+01,1.71E+01,,
255,1.80E+00,1.72E+01,1.70E+01,,
256,1.76E+00,1.72E+01,1.70E+01,,
257,1.80E+00,1.71E+01,1.70E+01,,
258,1.76E+00,1.72E+01,1.70E+01,,
259,1.80E+00,1.73E+01,1.69E+01,,
260,1.78E+00,1.74E+01,1.70E+01,,
261,1.72E+00,1.69E+01,1.68E+01,,
262,1.72E+00,1.64E+01,1.64E+01,,
263,1.84E+00,1.76E+01,1.71E+01,,
264,1.76E+00,1.73E+01,1.68E+01,,
265,1.80E+00,1.71E+01,1.67E+01,,
266,1.76E+00,1.70E+01,1.68E+01,,
267,1.80E+00,1.72E+01,1.67E+01,,
268,1.76E+00,1.72E+01,1.66E+01,,
269,1.80E+00,1.70E+01,1.68E+01,,
270,1.76E+00,1.71E+01,1.67E+01,,
271,1.80E+00,1.70E+01,1.69E+01,,
272,1.80E+00,1.71E+01,1.68E+01,,
273,1.76E+00,1.70E+01,1.67E+01,,
274,1.76E+00,1.71E+01,1.68E+01,,
275,1.78E+00,1.69E+01,1.67E+01,,
276,1.78E+00,1.69E+01,1.67E+01,,
277,1.72E+00,1.71E+01,1.66E+01,,
278,1.76E+00,1.70E+01,1.66E+01,,
279,1.80E+00,1.69E+01,1.67E+01,,
280,1.76E+00,1.70E+01,1.66E+01,,
281,1.80E+00,1.68E+01,1.67E+01,,
282,1.76E+00,1.69E+01,1.67E+01,,
283,1.78E+00,1.70E+01,1.65E+01,,
284,1.76E+00,1.68E+01,1.65E+01,,
285,1.80E+00,1.69E+01,1.67E+01,,
286,1.80E+00,1.69E+01,1.66E+01,,
287,1.74E+00,1.68E+01,1.66E+01,,
288,1.76E+00,1.69E+01,1.66E+01,,
289,1.78E+00,1.68E+01,1.65E+01,,
290,2.06E+00,1.38E+01,1.86E+01,,
291,1.32E+00,1.89E+01,1.35E+01,,
292,1.88E+00,1.77E+01,1.72E+01,,
293,1.66E+00,1.58E+01,1.63E+01,,
294,1.72E+00,1.70E+01,1.70E+01,,
295,1.80E+00,1.66E+01,1.66E+01,,
296,1.76E+00,1.68E+01,1.69E+01,,
297,1.78E+00,1.66E+01,1.67E+01,,
298,1.76E+00,1.67E+01,1.67E+01,,
299,1.78E+00,1.66E+01,1.68E+01,,
300,1.78E+00,1.66E+01,1.68E+01,,
301,1.72E+00,1.67E+01,1.69E+01,,
302,1.78E+00,1.67E+01,1.69E+01,,
303,1.72E+00,1.66E+01,1.68E+01,,
304,1.74E+00,1.67E+01,1.68E+01,,
305,1.78E+00,1.65E+01,1.69E+01,,
306,2.28E+00,1.89E+01,1.35E+01,,
307,9.80E-01,1.38E+01,1.86E+01,,
308,1.48E+00,1.89E+01,1.86E+01,,
309,2.22E+00,1.44E+01,1.43E+01,,
310,1.80E+00,1.61E+01,1.64E+01,,
311,1.70E+00,1.70E+01,1.75E+01,,
312,1.78E+00,1.66E+01,1.73E+01,,
313,1.72E+00,1.68E+01,1.70E+01,,
314,1.78E+00,1.68E+01,1.72E+01,,
315,1.74E+00,1.67E+01,1.70E+01,,
316,1.78E+00,1.67E+01,1.70E+01,,
317,1.72E+00,1.68E+01,1.72E+01,,
318,1.78E+00,1.67E+01,1.71E+01,,
319,1.72E+00,1.68E+01,1.72E+01,,
320,1.72E+00,1.67E+01,1.71E+01,,
321,1.78E+00,1.69E+01,1.72E+01,,
322,1.78E+00,1.68E+01,1.73E+01,,
323,1.72E+00,1.69E+01,1.72E+01,,
324,1.78E+00,1.70E+01,1.73E+01,,
325,1.72E+00,1.68E+01,1.72E+01,,
326,1.72E+00,1.65E+01,1.55E+01,,
327,1.80E+00,1.71E+01,1.83E+01,,
328,1.80E+00,1.72E+01,1.80E+01,,
329,1.72E+00,1.69E+01,1.64E+01,,
330,1.76E+00,1.69E+01,1.68E+01,,
331,1.78E+00,1.70E+01,1.70E+01,,
332,1.78E+00,1.70E+01,1.69E+01,,
333,1.74E+00,1.71E+01,1.70E+01,,
334,1.78E+00,1.71E+01,1.70E+01,,
335,1.74E+00,1.70E+01,1.70E+01,,
336,1.78E+00,1.71E+01,1.71E+01,,
337,1.72E+00,1.72E+01,1.69E+01,,
338,1.78E+00,1.71E+01,1.71E+01,,
339,1.72E+00,1.72E+01,1.69E+01,,
340,1.78E+00,1.72E+01,1.68E+01,,
341,1.72E+00,1.72E+01,1.70E+01,,
342,1.78E+00,1.73E+01,1.70E+01,,
343,1.70E+00,1.68E+01,1.67E+01,,
344,1.70E+00,1.65E+01,1.64E+01,,
345,1.82E+00,1.76E+01,1.71E+01,,
346,1.78E+00,1.72E+01,1.68E+01,,
347,1.76E+00,1.70E+01,1.67E+01,,
348,1.78E+00,1.70E+01,1.66E+01,,
349,1.72E+00,1.71E+01,1.68E+01,,
350,1.78E+00,1.71E+01,1.68E+01,,
351,1.72E+00,1.70E+01,1.67E+01,,
352,1.78E+00,1.70E+01,1.68E+01,,
353,1.72E+00,1.71E+01,1.67E+01,,
354,1.78E+00,1.71E+01,1.68E+01,,
355,1.72E+00,1.70E+01,1.67E+01,,
356,1.78E+00,1.70E+01,1.68E+01,,
357,1.72E+00,1.70E+01,1.66E+01,,
358,1.78E+00,1.70E+01,1.67E+01,,
359,1.74E+00,1.69E+01,1.66E+01,,
360,1.78E+00,1.70E+01,1.67E+01,,
361,1.72E+00,1.69E+01,1.66E+01,,
362,1.78E+00,1.70E+01,1.66E+01,,
363,1.74E+00,1.69E+01,1.67E+01,,
364,1.78E+00,1.70E+01,1.66E+01,,
365,1.72E+00,1.68E+01,1.67E+01,,
366,1.78E+00,1.69E+01,1.67E+01,,
367,1.74E+00,1.68E+01,1.65E+01,,
368,1.72E+00,1.68E+01,1.65E+01,,
369,1.78E+00,1.69E+01,1.66E+01,,
370,1.78E+00,1.69E+01,1.66E+01,,
371,1.72E+00,1.67E+01,1.65E+01,,
372,1.30E+00,1.38E+01,1.86E+01,,
373,2.06E+00,1.89E+01,1.35E+01,,
374,1.84E+00,1.77E+01,1.73E+01,,
375,1.64E+00,1.58E+01,1.62E+01,,
376,1.78E+00,1.70E+01,1.69E+01,,
377,1.72E+00,1.66E+01,1.66E+01,,
378,1.78E+00,1.68E+01,1.67E+01,,
379,1.72E+00,1.66E+01,1.68E+01,,
380,1.78E+00,1.66E+01,1.67E+01,,
381,1.74E+00,1.68E+01,1.68E+01,,
382,1.72E+00,1.67E+01,1.67E+01,,
383,1.78E+00,1.66E+01,1.69E+01,,
384,1.78E+00,1.67E+01,1.68E+01,,
385,1.72E+00,1.65E+01,1.69E+01,,
386,1.74E+00,1.66E+01,1.69E+01,,
387,1.78E+00,1.65E+01,1.69E+01,,
388,2.30E+00,1.89E+01,1.35E+01,,
389,1.02E+00,1.38E+01,1.86E+01,,
390,1.48E+00,1.89E+01,1.42E+01,,
391,2.24E+00,1.43E+01,1.86E+01,,
392,1.70E+00,1.61E+01,1.64E+01,,
393,1.80E+00,1.70E+01,1.75E+01,,
394,1.78E+00,1.65E+01,1.72E+01,,
395,1.74E+00,1.68E+01,1.69E+01,,
396,1.78E+00,1.68E+01,1.72E+01,,
397,1.74E+00,1.66E+01,1.69E+01,,
398,1.78E+00,1.67E+01,1.70E+01,,
399,1.72E+00,1.68E+01,1.71E+01,,
400,1.78E+00,1.68E+01,1.70E+01,,
401,1.74E+00,1.67E+01,1.72E+01,,
402,1.78E+00,1.68E+01,1.71E+01,,
403,1.74E+00,1.69E+01,1.72E+01,,
404,1.78E+00,1.68E+01,1.71E+01,,
405,1.74E+00,1.69E+01,1.72E+01,,
406,1.76E+00,1.68E+01,1.72E+01,,
407,1.78E+00,1.70E+01,1.73E+01,,
408,1.72E+00,1.65E+01,1.56E+01,,
409,1.80E+00,1.70E+01,1.83E+01,,
410,1.80E+00,1.72E+01,1.81E+01,,
411,1.74E+00,1.69E+01,1.63E+01,,
412,1.76E+00,1.69E+01,1.69E+01,,
413,1.78E+00,1.70E+01,1.70E+01,,
414,1.78E+00,1.69E+01,1.69E+01,,
415,1.72E+00,1.71E+01,1.71E+01,,
416,1.76E+00,1.70E+01,1.71E+01,,
417,1.78E+00,1.71E+01,1.69E+01,,
418,1.76E+00,1.71E+01,1.69E+01,,
419,1.78E+00,1.72E+01,1.70E+01,,
420,1.78E+00,1.71E+01,1.70E+01,,
421,1.76E+00,1.72E+01,1.69E+01,,
422,1.76E+00,1.71E+01,1.70E+01,,
423,1.78E+00,1.73E+01,1.69E+01,,
424,1.78E+00,1.73E+01,1.70E+01,,
425,1.72E+00,1.68E+01,1.67E+01,,
426,1.72E+00,1.64E+01,1.65E+01,,
427,1.82E+00,1.76E+01,1.71E+01,,
428,1.76E+00,1.73E+01,1.68E+01,,
429,1.80E+00,1.70E+01,1.66E+01,,
430,1.78E+00,1.70E+01,1.66E+01,,
431,1.74E+00,1.71E+01,1.68E+01,,
432,1.76E+00,1.70E+01,1.67E+01,,
433,1.80E+00,1.71E+01,1.68E+01,,
434,1.76E+00,1.71E+01,1.67E+01,,
435,1.80E+00,1.70E+01,1.68E+01,,
436,1.78E+00,1.71E+01,1.67E+01,,
437,1.74E+00,1.70E+01,1.68E+01,,
438,1.78E+00,1.71E+01,1.67E+01,,
439,1.72E+00,1.69E+01,1.66E+01,,
440,1.76E+00,1.71E+01,1.67E+01,,
441,1.78E+00,1.69E+01,1.66E+01,,
442,1.76E+00,1.70E+01,1.67E+01,,
443,1.78E+00,1.69E+01,1.66E+01,,
444,1.78E+00,1.70E+01,1.67E+01,,
445,1.76E+00,1.68E+01,1.66E+01,,
446,1.76E+00,1.70E+01,1.67E+01,,
447,1.78E+00,1.68E+01,1.65E+01,,
448,1.76E+00,1.68E+01,1.67E+01,,
449,1.78E+00,1.69E+01,1.65E+01,,
450,1.78E+00,1.69E+01,1.66E+01,,
451,1.74E+00,1.68E+01,1.65E+01,,
452,1.78E+00,1.69E+01,1.66E+01,,
453,1.76E+00,1.68E+01,1.65E+01,,
454,2.06E+00,1.38E+01,1.86E+01,,
455,1.32E+00,1.89E+01,1.35E+01,,
456,1.86E+00,1.77E+01,1.72E+01,,
457,1.64E+00,1.58E+01,1.62E+01,,
458,1.74E+00,1.66E+01,1.70E+01,,
459,1.80E+00,1.70E+01,1.67E+01,,
460,1.76E+00,1.66E+01,1.69E+01,,
461,1.78E+00,1.68E+01,1.67E+01,,
462,1.78E+00,1.65E+01,1.67E+01,,
463,1.76E+00,1.67E+01,1.68E+01,,
464,1.72E+00,1.67E+01,1.67E+01,,
465,1.80E+00,1.66E+01,1.69E+01,,
466,1.78E+00,1.66E+01,1.67E+01,,
467,1.72E+00,1.65E+01,1.69E+01,,
468,1.78E+00,1.66E+01,1.68E+01,,
469,1.72E+00,1.65E+01,1.70E+01,,
470,2.14E+00,1.89E+01,1.35E+01,,
471,9.80E-01,1.38E+01,1.86E+01,,
472,1.52E+00,1.89E+01,1.86E+01,,
473,2.26E+00,1.42E+01,1.40E+01,,
474,1.80E+00,1.61E+01,1.64E+01,,
475,1.70E+00,1.69E+01,1.75E+01,,
476,1.80E+00,1.65E+01,1.70E+01,,
477,1.74E+00,1.68E+01,1.72E+01,,
478,1.78E+00,1.67E+01,1.72E+01,,
479,1.72E+00,1.68E+01,1.70E+01,,
480,1.78E+00,1.67E+01,1.70E+01,,
481,1.74E+00,1.68E+01,1.71E+01,,
482,1.78E+00,1.67E+01,1.72E+01,,
483,1.74E+00,1.68E+01,1.71E+01,,
484,1.78E+00,1.68E+01,1.71E+01,,
485,1.74E+00,1.68E+01,1.72E+01,,
486,1.78E+00,1.68E+01,1.71E+01,,
487,1.74E+00,1.69E+01,1.73E+01,,
488,1.78E+00,1.68E+01,1.72E+01,,
489,1.72E+00,1.69E+01,1.71E+01,,
490,1.72E+00,1.65E+01,1.55E+01,,
491,1.80E+00,1.70E+01,1.83E+01,,
492,1.76E+00,1.72E+01,1.80E+01,,
493,1.80E+00,1.68E+01,1.63E+01,,
494,1.76E+00,1.69E+01,1.68E+01,,
495,1.78E+00,1.70E+01,1.71E+01,,
496,1.76E+00,1.69E+01,1.69E+01,,
497,1.80E+00,1.71E+01,1.70E+01,,
498,1.76E+00,1.70E+01,1.70E+01,,
499,1.80E+00,1.72E+01,1.70E+01,,
500,1.76E+00,1.71E+01,1.70E+01,,
501,1.80E+00,1.72E+01,1.70E+01,,
502,1.76E+00,1.71E+01,1.69E+01,,
503,1.78E+00,1.72E+01,1.70E+01,,
504,1.76E+00,1.71E+01,1.70E+01,,
505,1.80E+00,1.72E+01,1.69E+01,,
506,1.80E+00,1.73E+01,1.70E+01,,
507,1.74E+00,1.68E+01,1.67E+01,,
508,1.72E+00,1.65E+01,1.65E+01,,
509,1.82E+00,1.76E+01,1.71E+01,,
510,1.76E+00,1.72E+01,1.68E+01,,
511,1.80E+00,1.70E+01,1.66E+01,,
512,1.76E+00,1.70E+01,1.66E+01,,
513,1.80E+00,1.71E+01,1.68E+01,,
514,1.76E+00,1.70E+01,1.66E+01,,
515,1.78E+00,1.71E+01,1.68E+01,,
516,1.76E+00,1.70E+01,1.67E+01,,
517,1.78E+00,1.71E+01,1.68E+01,,
518,1.76E+00,1.71E+01,1.68E+01,,
519,1.80E+00,1.70E+01,1.67E+01,,
520,1.78E+00,1.71E+01,1.67E+01,,
521,1.74E+00,1.69E+01,1.66E+01,,
522,1.76E+00,1.70E+01,1.67E+01,,
523,1.78E+00,1.69E+01,1.66E+01,,
524,1.76E+00,1.70E+01,1.67E+01,,
525,1.80E+00,1.69E+01,1.66E+01,,
526,1.76E+00,1.69E+01,1.67E+01,,
527,1.80E+00,1.69E+01,1.66E+01,,
528,1.78E+00,1.68E+01,1.65E+01,,
529,1.76E+00,1.69E+01,1.67E+01,,
530,1.76E+00,1.69E+01,1.67E+01,,
531,1.80E+00,1.68E+01,1.65E+01,,
532,1.74E+00,1.69E+01,1.65E+01,,
533,1.80E+00,1.68E+01,1.66E+01,,
534,1.76E+00,1.67E+01,1.66E+01,,
535,1.78E+00,1.68E+01,1.65E+01,,
536,1.30E+00,1.38E+01,1.86E+01,,
537,2.08E+00,1.89E+01,1.35E+01,,
538,1.84E+00,1.77E+01,1.75E+01,,
539,1.66E+00,1.58E+01,1.63E+01,,
540,1.72E+00,1.69E+01,1.70E+01,,
541,1.80E+00,1.66E+01,1.67E+01,,
542,1.80E+00,1.68E+01,1.68E+01,,
543,1.74E+00,1.66E+01,1.67E+01,,
544,1.74E+00,1.67E+01,1.67E+01,,
545,1.78E+00,1.66E+01,1.68E+01,,
546,1.78E+00,1.66E+01,1.67E+01,,
547,1.74E+00,1.67E+01,1.69E+01,,
548,1.78E+00,1.66E+01,1.69E+01,,
549,1.74E+00,1.65E+01,1.67E+01,,
550,1.78E+00,1.66E+01,1.69E+01,,
551,1.74E+00,1.65E+01,1.68E+01,,
552,9.60E-01,1.89E+01,1.35E+01,,
553,2.10E+00,1.38E+01,1.86E+01,,
554,1.46E+00,1.89E+01,1.43E+01,,
555,2.20E+00,1.44E+01,1.86E+01,,
556,1.80E+00,1.61E+01,1.64E+01,,
557,1.70E+00,1.69E+01,1.75E+01,,
558,1.76E+00,1.65E+01,1.70E+01,,
559,1.80E+00,1.68E+01,1.72E+01,,
560,1.76E+00,1.66E+01,1.71E+01,,
561,1.80E+00,1.68E+01,1.70E+01,,
562,1.76E+00,1.67E+01,1.70E+01,,
563,1.80E+00,1.68E+01,1.71E+01,,
564,1.76E+00,1.67E+01,1.71E+01,,
565,1.78E+00,1.68E+01,1.71E+01,,
566,1.78E+00,1.68E+01,1.71E+01,,
567,1.74E+00,1.69E+01,1.72E+01,,
568,1.78E+00,1.68E+01,1.72E+01,,
569,1.74E+00,1.69E+01,1.71E+01,,
570,1.72E+00,1.68E+01,1.71E+01,,
571,1.80E+00,1.70E+01,1.73E+01,,
572,1.80E+00,1.65E+01,1.56E+01,,
573,1.74E+00,1.70E+01,1.84E+01,,
574,1.76E+00,1.72E+01,1.80E+01,,
575,1.80E+00,1.68E+01,1.64E+01,,
576,1.76E+00,1.70E+01,1.69E+01,,
577,1.78E+00,1.69E+01,1.70E+01,,
578,1.76E+00,1.69E+01,1.70E+01,,
579,1.78E+00,1.71E+01,1.69E+01,,
580,1.76E+00,1.70E+01,1.70E+01,,
581,1.78E+00,1.71E+01,1.69E+01,,
582,1.76E+00,1.70E+01,1.69E+01,,
583,1.78E+00,1.72E+01,1.70E+01,,
584,1.76E+00,1.71E+01,1.70E+01,,
585,1.78E+00,1.72E+01,1.69E+01,,
586,1.76E+00,1.71E+01,1.70E+01,,
587,1.78E+00,1.72E+01,1.69E+01,,
588,1.80E+00,1.73E+01,1.70E+01,,
589,1.74E+00,1.67E+01,1.67E+01,,
590,1.70E+00,1.64E+01,1.64E+01,,
591,1.84E+00,1.76E+01,1.71E+01,,
592,1.76E+00,1.72E+01,1.67E+01,,
593,1.80E+00,1.70E+01,1.66E+01,,
594,1.76E+00,1.70E+01,1.66E+01,,
595,1.80E+00,1.72E+01,1.68E+01,,
596,1.76E+00,1.71E+01,1.68E+01,,
597,1.80E+00,1.70E+01,1.66E+01,,
598,1.78E+00,1.70E+01,1.67E+01,,
599,1.76E+00,1.71E+01,1.68E+01,,
600,1.78E+00,1.71E+01,1.68E+01,,
601,1.76E+00,1.70E+01,1.67E+01,,
602,1.76E+00,1.70E+01,1.67E+01,,
603,1.78E+00,1.69E+01,1.67E+01,,
604,1.76E+00,1.70E+01,1.67E+01,,
605,1.80E+00,1.69E+01,1.66E+01,,
606,1.76E+00,1.70E+01,1.66E+01,,
