Experiments/Boost Oscillo Data/NewFile10.csv

X,CH2,CH3,CH4,Start,Increment,
Sequence,Volt,Volt,Volt,-6.030000e-05,1.000000e-07
0,1.34e+01,1.29e+01,2.96e+00,
1,1.27e+01,1.24e+01,3.04e+00,
2,1.32e+01,1.28e+01,2.96e+00,
3,1.27e+01,1.25e+01,3.04e+00,
4,1.30e+01,1.25e+01,2.96e+00,
5,1.28e+01,1.27e+01,3.12e+00,
6,1.28e+01,1.25e+01,2.96e+00,
7,1.30e+01,1.27e+01,3.12e+00,
8,1.30e+01,1.24e+01,2.96e+00,
9,1.28e+01,1.26e+01,3.12e+00,
10,1.30e+01,1.26e+01,3.04e+00,
11,1.28e+01,1.25e+01,3.12e+00,
12,1.29e+01,1.25e+01,3.04e+00,
13,1.28e+01,1.24e+01,3.12e+00,
14,1.29e+01,1.26e+01,3.04e+00,
15,1.28e+01,1.24e+01,3.12e+00,
16,1.28e+01,1.24e+01,3.04e+00,
17,1.29e+01,1.26e+01,3.12e+00,
18,1.29e+01,1.24e+01,3.12e+00,
19,1.28e+01,1.26e+01,3.04e+00,
20,1.29e+01,1.25e+01,3.04e+00,
21,1.28e+01,1.26e+01,3.12e+00,
22,1.28e+01,1.25e+01,3.04e+00,
23,1.29e+01,1.24e+01,3.12e+00,
24,1.29e+01,1.24e+01,3.04e+00,
25,1.28e+01,1.26e+01,3.12e+00,
26,1.29e+01,1.26e+01,3.04e+00,
27,1.27e+01,1.24e+01,3.12e+00,
28,1.28e+01,1.26e+01,3.04e+00,
29,1.29e+01,1.24e+01,3.12e+00,
30,1.27e+01,1.24e+01,3.04e+00,
31,1.29e+01,1.25e+01,3.20e+00,
32,1.29e+01,1.23e+01,3.04e+00,
33,1.27e+01,1.25e+01,3.20e+00,
34,1.27e+01,1.25e+01,3.04e+00,
35,1.29e+01,1.24e+01,3.20e+00,
36,1.27e+01,1.24e+01,3.20e+00,
37,1.28e+01,1.25e+01,3.12e+00,
38,1.28e+01,1.25e+01,3.20e+00,
39,1.27e+01,1.24e+01,3.12e+00,
40,1.28e+01,1.24e+01,3.12e+00,
41,1.27e+01,1.25e+01,3.20e+00,
42,1.28e+01,1.25e+01,3.20e+00,
43,1.26e+01,1.23e+01,3.12e+00,
44,1.27e+01,1.24e+01,3.12e+00,
45,1.28e+01,1.24e+01,3.20e+00,
46,1.27e+01,1.24e+01,3.20e+00,
47,1.27e+01,1.24e+01,3.12e+00,
48,1.28e+01,1.24e+01,3.12e+00,
49,1.26e+01,1.23e+01,3.20e+00,
50,1.26e+01,1.24e+01,3.20e+00,
51,1.27e+01,1.23e+01,3.12e+00,
52,1.27e+01,1.25e+01,3.20e+00,
53,1.26e+01,1.23e+01,3.12e+00,
54,1.27e+01,1.23e+01,3.12e+00,
55,1.26e+01,1.25e+01,3.20e+00,
56,1.27e+01,1.23e+01,3.12e+00,
57,1.26e+01,1.24e+01,3.20e+00,
58,1.26e+01,1.24e+01,3.20e+00,
59,1.27e+01,1.23e+01,3.12e+00,
60,1.26e+01,1.22e+01,3.20e+00,
61,1.27e+01,1.36e+01,3.12e+00,
62,1.22e+01,1.34e+01,3.20e+00,
63,1.28e+01,1.10e+01,3.12e+00,
64,1.27e+01,1.32e+01,3.20e+00,
65,1.25e+01,1.21e+01,3.12e+00,
66,1.26e+01,1.22e+01,3.12e+00,
67,1.27e+01,1.25e+01,3.20e+00,
68,1.26e+01,1.25e+01,3.20e+00,
69,1.25e+01,1.23e+01,3.12e+00,
70,1.25e+01,1.24e+01,3.12e+00,
71,1.26e+01,1.25e+01,3.20e+00,
72,1.26e+01,1.23e+01,3.20e+00,
73,1.27e+01,1.25e+01,3.04e+00,
74,1.27e+01,1.24e+01,3.20e+00,
75,1.25e+01,1.25e+01,3.04e+00,
76,1.26e+01,1.25e+01,3.04e+00,
77,1.27e+01,1.27e+01,3.12e+00,
78,1.26e+01,1.25e+01,3.04e+00,
79,1.27e+01,1.27e+01,3.12e+00,
80,1.26e+01,1.27e+01,3.04e+00,
81,1.26e+01,1.26e+01,3.12e+00,
82,1.26e+01,1.26e+01,3.04e+00,
83,1.26e+01,1.27e+01,3.12e+00,
84,1.26e+01,1.27e+01,3.12e+00,
85,1.27e+01,1.26e+01,3.04e+00,
86,1.26e+01,1.26e+01,3.04e+00,
87,1.25e+01,1.27e+01,3.12e+00,
88,1.26e+01,1.28e+01,3.04e+00,
89,1.25e+01,1.26e+01,3.12e+00,
90,1.26e+01,1.26e+01,3.04e+00,
91,1.25e+01,1.27e+01,3.12e+00,
92,1.26e+01,1.27e+01,3.04e+00,
93,1.25e+01,1.28e+01,3.12e+00,
94,1.26e+01,1.27e+01,3.04e+00,
95,1.25e+01,1.28e+01,3.12e+00,
96,1.26e+01,1.27e+01,2.96e+00,
97,1.25e+01,1.28e+01,3.12e+00,
98,1.26e+01,1.27e+01,2.96e+00,
99,1.24e+01,1.29e+01,3.12e+00,
100,1.25e+01,1.45e+01,2.96e+00,
101,1.46e+01,1.24e+01,3.04e+00,
102,1.08e+01,1.10e+01,2.96e+00,
103,1.59e+01,1.61e+01,3.12e+00,
104,1.59e+01,1.10e+01,3.12e+00,
105,1.08e+01,1.55e+01,2.96e+00,
106,1.37e+01,1.15e+01,2.96e+00,
107,1.15e+01,1.43e+01,3.12e+00,
108,1.33e+01,1.36e+01,2.96e+00,
109,1.21e+01,1.22e+01,3.12e+00,
110,1.21e+01,1.31e+01,2.96e+00,
111,1.28e+01,1.26e+01,3.12e+00,
112,1.23e+01,1.30e+01,3.04e+00,
113,1.26e+01,1.27e+01,3.12e+00,
114,1.26e+01,1.26e+01,3.04e+00,
115,1.22e+01,1.28e+01,3.12e+00,
116,1.18e+01,1.21e+01,3.04e+00,
117,1.26e+01,1.31e+01,3.12e+00,
118,1.32e+01,1.31e+01,3.12e+00,
119,1.24e+01,1.24e+01,3.04e+00,
120,1.24e+01,1.25e+01,3.04e+00,
121,1.27e+01,1.27e+01,3.12e+00,
122,1.26e+01,1.26e+01,3.12e+00,
123,1.24e+01,1.25e+01,3.04e+00,
124,1.24e+01,1.25e+01,3.12e+00,
125,1.27e+01,1.26e+01,2.96e+00,
126,1.26e+01,1.25e+01,2.96e+00,
127,1.27e+01,1.27e+01,3.12e+00,
128,1.26e+01,1.27e+01,2.96e+00,
129,1.27e+01,1.25e+01,3.04e+00,
130,1.28e+01,1.26e+01,2.96e+00,
131,1.27e+01,1.27e+01,2.96e+00,
132,1.27e+01,1.26e+01,2.96e+00,
133,1.28e+01,1.28e+01,3.04e+00,
134,1.27e+01,1.27e+01,2.96e+00,
135,1.28e+01,1.26e+01,3.04e+00,
136,1.29e+01,1.26e+01,2.96e+00,
137,1.28e+01,1.27e+01,3.04e+00,
138,1.28e+01,1.27e+01,3.04e+00,
139,1.29e+01,1.27e+01,2.96e+00,
140,1.28e+01,1.27e+01,3.04e+00,
141,1.29e+01,1.26e+01,2.96e+00,
142,1.29e+01,1.27e+01,2.96e+00,
143,1.28e+01,1.26e+01,3.04e+00,
144,1.29e+01,1.25e+01,2.96e+00,
145,1.29e+01,1.27e+01,3.04e+00,
146,1.29e+01,1.27e+01,2.96e+00,
147,1.30e+01,1.25e+01,3.04e+00,
148,1.30e+01,1.25e+01,2.96e+00,
149,1.29e+01,1.27e+01,3.04e+00,
150,1.29e+01,1.27e+01,2.96e+00,
151,1.30e+01,1.25e+01,3.04e+00,
152,1.30e+01,1.26e+01,2.96e+00,
153,1.30e+01,1.26e+01,3.04e+00,
154,1.30e+01,1.27e+01,2.96e+00,
155,1.31e+01,1.25e+01,3.04e+00,
156,1.59e+01,1.10e+01,3.04e+00,
157,1.08e+01,1.61e+01,2.80e+00,
158,1.59e+01,1.10e+01,2.96e+00,
159,1.11e+01,1.61e+01,3.04e+00,
160,1.45e+01,1.10e+01,2.96e+00,
161,1.20e+01,1.44e+01,3.04e+00,
162,1.22e+01,1.36e+01,2.96e+00,
163,1.38e+01,1.18e+01,2.96e+00,
164,1.34e+01,1.24e+01,2.96e+00,
165,1.26e+01,1.31e+01,3.04e+00,
166,1.32e+01,1.28e+01,2.96e+00,
167,1.27e+01,1.25e+01,3.04e+00,
168,1.30e+01,1.27e+01,2.96e+00,
169,1.28e+01,1.24e+01,3.04e+00,
170,1.31e+01,1.27e+01,2.96e+00,
171,1.28e+01,1.24e+01,3.12e+00,
172,1.29e+01,1.24e+01,3.12e+00,
173,1.28e+01,1.26e+01,3.04e+00,
174,1.30e+01,1.26e+01,3.04e+00,
175,1.28e+01,1.25e+01,3.12e+00,
176,1.28e+01,1.25e+01,3.04e+00,
177,1.29e+01,1.26e+01,3.12e+00,
178,1.29e+01,1.26e+01,3.04e+00,
179,1.28e+01,1.25e+01,3.12e+00,
180,1.29e+01,1.25e+01,3.12e+00,
181,1.28e+01,1.26e+01,3.04e+00,
182,1.28e+01,1.25e+01,3.04e+00,
183,1.29e+01,1.26e+01,3.12e+00,
184,1.29e+01,1.25e+01,3.04e+00,
185,1.28e+01,1.24e+01,3.12e+00,
186,1.29e+01,1.25e+01,3.04e+00,
187,1.28e+01,1.25e+01,3.12e+00,
188,1.28e+01,1.26e+01,3.04e+00,
189,1.29e+01,1.25e+01,3.12e+00,
190,1.29e+01,1.24e+01,3.04e+00,
191,1.28e+01,1.25e+01,3.12e+00,
192,1.28e+01,1.25e+01,3.04e+00,
193,1.28e+01,1.24e+01,3.12e+00,
194,1.27e+01,1.25e+01,3.04e+00,
195,1.28e+01,1.24e+01,3.20e+00,
196,1.28e+01,1.24e+01,3.04e+00,
197,1.28e+01,1.25e+01,3.20e+00,
198,1.28e+01,1.25e+01,3.20e+00,
199,1.27e+01,1.23e+01,3.04e+00,
200,1.28e+01,1.24e+01,3.12e+00,
201,1.27e+01,1.25e+01,3.20e+00,
202,1.27e+01,1.25e+01,3.20e+00,
203,1.28e+01,1.23e+01,3.12e+00,
204,1.28e+01,1.25e+01,3.20e+00,
205,1.27e+01,1.23e+01,3.12e+00,
206,1.27e+01,1.23e+01,3.20e+00,
207,1.26e+01,1.25e+01,3.12e+00,
208,1.26e+01,1.25e+01,3.12e+00,
209,1.28e+01,1.24e+01,3.20e+00,
210,1.26e+01,1.25e+01,3.20e+00,
211,1.27e+01,1.23e+01,3.12e+00,
212,1.27e+01,1.23e+01,3.20e+00,
213,1.27e+01,1.24e+01,3.12e+00,
214,1.27e+01,1.25e+01,3.12e+00,
215,1.26e+01,1.23e+01,3.20e+00,
216,1.26e+01,1.24e+01,3.12e+00,
217,1.27e+01,1.23e+01,3.20e+00,
218,1.27e+01,1.24e+01,3.20e+00,
219,1.26e+01,1.25e+01,3.12e+00,
220,1.26e+01,1.24e+01,3.12e+00,
221,1.27e+01,1.23e+01,3.20e+00,
222,1.26e+01,1.23e+01,3.12e+00,
223,1.27e+01,1.24e+01,3.20e+00,
224,1.27e+01,1.23e+01,3.12e+00,
225,1.25e+01,1.28e+01,3.20e+00,
226,1.28e+01,1.36e+01,3.20e+00,
227,1.22e+01,1.10e+01,3.12e+00,
228,1.28e+01,1.33e+01,3.12e+00,
229,1.25e+01,1.21e+01,3.20e+00,
230,1.25e+01,1.21e+01,3.20e+00,
231,1.27e+01,1.26e+01,3.12e+00,
232,1.26e+01,1.26e+01,3.20e+00,
233,1.25e+01,1.23e+01,3.12e+00,
234,1.26e+01,1.23e+01,3.20e+00,
235,1.26e+01,1.25e+01,3.12e+00,
236,1.26e+01,1.25e+01,3.20e+00,
237,1.25e+01,1.24e+01,3.12e+00,
238,1.25e+01,1.24e+01,3.20e+00,
239,1.27e+01,1.26e+01,3.04e+00,
240,1.27e+01,1.25e+01,3.04e+00,
241,1.25e+01,1.26e+01,3.20e+00,
242,1.27e+01,1.26e+01,3.04e+00,
243,1.26e+01,1.27e+01,3.12e+00,
244,1.26e+01,1.25e+01,3.04e+00,
245,1.27e+01,1.27e+01,3.12e+00,
246,1.27e+01,1.27e+01,3.04e+00,
247,1.25e+01,1.26e+01,3.12e+00,
248,1.25e+01,1.26e+01,3.12e+00,
249,1.27e+01,1.27e+01,3.04e+00,
250,1.27e+01,1.26e+01,3.12e+00,
251,1.25e+01,1.27e+01,3.04e+00,
252,1.26e+01,1.28e+01,3.04e+00,
253,1.25e+01,1.26e+01,3.12e+00,
254,1.25e+01,1.27e+01,3.12e+00,
255,1.26e+01,1.28e+01,3.04e+00,
256,1.25e+01,1.28e+01,3.04e+00,
257,1.26e+01,1.27e+01,3.12e+00,
258,1.26e+01,1.27e+01,3.04e+00,
259,1.25e+01,1.28e+01,3.12e+00,
260,1.26e+01,1.29e+01,3.12e+00,
261,1.25e+01,1.27e+01,2.96e+00,
262,1.24e+01,1.27e+01,2.96e+00,
263,1.26e+01,1.29e+01,3.12e+00,
264,1.26e+01,1.29e+01,2.96e+00,
265,1.25e+01,1.27e+01,3.04e+00,
266,1.08e+01,1.10e+01,2.96e+00,
267,1.59e+01,1.61e+01,3.12e+00,
268,1.59e+01,1.59e+01,2.96e+00,
269,1.08e+01,1.10e+01,3.12e+00,
270,1.37e+01,1.48e+01,2.96e+00,
271,1.14e+01,1.10e+01,3.12e+00,
272,1.18e+01,1.35e+01,2.96e+00,
273,1.33e+01,1.21e+01,3.12e+00,
274,1.30e+01,1.26e+01,2.96e+00,
275,1.21e+01,1.31e+01,3.12e+00,
276,1.27e+01,1.27e+01,3.12e+00,
277,1.23e+01,1.30e+01,3.04e+00,
278,1.26e+01,1.29e+01,3.12e+00,
279,1.23e+01,1.27e+01,3.04e+00,
280,1.26e+01,1.30e+01,3.04e+00,
281,1.17e+01,1.21e+01,3.12e+00,
282,1.22e+01,1.30e+01,3.04e+00,
283,1.31e+01,1.25e+01,3.12e+00,
284,1.26e+01,1.25e+01,3.04e+00,
285,1.24e+01,1.27e+01,3.12e+00,
286,1.26e+01,1.25e+01,3.04e+00,
287,1.24e+01,1.26e+01,3.12e+00,
288,1.25e+01,1.27e+01,3.04e+00,
289,1.27e+01,1.25e+01,3.12e+00,
290,1.26e+01,1.26e+01,3.12e+00,
291,1.27e+01,1.27e+01,2.96e+00,
292,1.27e+01,1.27e+01,2.96e+00,
293,1.28e+01,1.26e+01,3.12e+00,
294,1.28e+01,1.26e+01,2.96e+00,
295,1.27e+01,1.27e+01,3.04e+00,
296,1.27e+01,1.26e+01,2.96e+00,
297,1.28e+01,1.28e+01,3.04e+00,
298,1.27e+01,1.26e+01,2.96e+00,
299,1.29e+01,1.27e+01,3.04e+00,
300,1.29e+01,1.27e+01,2.96e+00,
301,1.28e+01,1.26e+01,2.96e+00,
302,1.29e+01,1.26e+01,2.96e+00,
303,1.28e+01,1.27e+01,3.04e+00,
304,1.28e+01,1.26e+01,2.96e+00,
305,1.29e+01,1.28e+01,3.04e+00,
306,1.29e+01,1.28e+01,2.96e+00,
307,1.28e+01,1.26e+01,3.04e+00,
308,1.28e+01,1.26e+01,2.96e+00,
309,1.30e+01,1.27e+01,3.04e+00,
310,1.28e+01,1.25e+01,2.96e+00,
311,1.30e+01,1.27e+01,3.04e+00,
312,1.31e+01,1.26e+01,2.96e+00,
313,1.29e+01,1.26e+01,3.04e+00,
314,1.29e+01,1.26e+01,2.96e+00,
315,1.30e+01,1.25e+01,3.04e+00,
316,1.30e+01,1.25e+01,2.96e+00,
317,1.29e+01,1.26e+01,3.04e+00,
318,1.29e+01,1.26e+01,2.96e+00,
319,1.32e+01,1.25e+01,3.04e+00,
320,1.59e+01,1.10e+01,3.04e+00,
321,1.08e+01,1.61e+01,2.88e+00,
322,1.59e+01,1.60e+01,2.96e+00,
323,1.11e+01,1.10e+01,3.04e+00,
324,1.16e+01,1.10e+01,2.96e+00,
325,1.44e+01,1.43e+01,3.04e+00,
326,1.20e+01,1.36e+01,3.04e+00,
327,1.36e+01,1.17e+01,2.96e+00,
328,1.35e+01,1.23e+01,2.96e+00,
329,1.26e+01,1.30e+01,3.04e+00,
330,1.32e+01,1.25e+01,2.96e+00,
331,1.27e+01,1.28e+01,3.04e+00,
332,1.31e+01,1.27e+01,2.96e+00,
333,1.28e+01,1.25e+01,3.04e+00,
334,1.28e+01,1.27e+01,2.96e+00,
335,1.30e+01,1.24e+01,3.12e+00,
336,1.30e+01,1.24e+01,3.04e+00,
337,1.28e+01,1.27e+01,3.12e+00,
338,1.30e+01,1.26e+01,3.12e+00,
339,1.28e+01,1.24e+01,3.04e+00,
340,1.28e+01,1.26e+01,3.04e+00,
341,1.29e+01,1.24e+01,3.12e+00,
342,1.29e+01,1.25e+01,3.04e+00,
343,1.28e+01,1.26e+01,3.12e+00,
344,1.28e+01,1.25e+01,3.04e+00,
345,1.29e+01,1.25e+01,3.12e+00,
346,1.29e+01,1.25e+01,3.12e+00,
347,1.28e+01,1.24e+01,3.04e+00,
348,1.28e+01,1.26e+01,3.04e+00,
349,1.29e+01,1.24e+01,3.12e+00,
350,1.29e+01,1.24e+01,3.04e+00,
351,1.28e+01,1.25e+01,3.12e+00,
352,1.28e+01,1.25e+01,3.04e+00,
353,1.29e+01,1.25e+01,3.12e+00,
354,1.28e+01,1.25e+01,3.04e+00,
355,1.29e+01,1.24e+01,3.12e+00,
356,1.29e+01,1.24e+01,3.04e+00,
357,1.27e+01,1.25e+01,3.12e+00,
358,1.27e+01,1.25e+01,3.04e+00,
359,1.28e+01,1.24e+01,3.20e+00,
360,1.28e+01,1.24e+01,3.04e+00,
361,1.27e+01,1.25e+01,3.20e+00,
362,1.28e+01,1.24e+01,3.04e+00,
363,1.27e+01,1.25e+01,3.20e+00,
364,1.27e+01,1.25e+01,3.12e+00,
365,1.29e+01,1.24e+01,3.20e+00,
366,1.28e+01,1.25e+01,3.12e+00,
367,1.27e+01,1.24e+01,3.20e+00,
368,1.28e+01,1.24e+01,3.20e+00,
369,1.27e+01,1.25e+01,3.12e+00,
370,1.28e+01,1.25e+01,3.20e+00,
371,1.27e+01,1.24e+01,3.12e+00,
372,1.26e+01,1.25e+01,3.20e+00,
373,1.28e+01,1.24e+01,3.12e+00,
374,1.27e+01,1.25e+01,3.12e+00,
375,1.26e+01,1.23e+01,3.20e+00,
376,1.27e+01,1.24e+01,3.12e+00,
377,1.27e+01,1.24e+01,3.20e+00,
378,1.27e+01,1.24e+01,3.12e+00,
379,1.26e+01,1.23e+01,3.20e+00,
380,1.26e+01,1.24e+01,3.20e+00,
381,1.28e+01,1.23e+01,3.12e+00,
382,1.27e+01,1.24e+01,3.20e+00,
383,1.26e+01,1.23e+01,3.12e+00,
384,1.27e+01,1.23e+01,3.20e+00,
385,1.26e+01,1.25e+01,3.12e+00,
386,1.26e+01,1.25e+01,3.20e+00,
387,1.27e+01,1.23e+01,3.12e+00,
388,1.27e+01,1.23e+01,3.12e+00,
389,1.26e+01,1.25e+01,3.20e+00,
390,1.22e+01,1.36e+01,3.12e+00,
391,1.28e+01,1.10e+01,3.20e+00,
392,1.28e+01,1.20e+01,3.12e+00,
393,1.26e+01,1.32e+01,3.20e+00,
394,1.25e+01,1.21e+01,3.20e+00,
395,1.27e+01,1.25e+01,3.12e+00,
396,1.27e+01,1.26e+01,3.20e+00,
397,1.25e+01,1.23e+01,3.12e+00,
398,1.27e+01,1.23e+01,3.12e+00,
399,1.26e+01,1.25e+01,3.20e+00,
400,1.25e+01,1.24e+01,3.20e+00,
401,1.27e+01,1.25e+01,3.12e+00,
402,1.26e+01,1.24e+01,3.20e+00,
403,1.27e+01,1.25e+01,3.04e+00,
404,1.27e+01,1.25e+01,3.04e+00,
405,1.25e+01,1.26e+01,3.20e+00,
406,1.26e+01,1.25e+01,3.12e+00,
407,1.27e+01,1.26e+01,3.04e+00,
408,1.27e+01,1.26e+01,3.04e+00,
409,1.26e+01,1.25e+01,3.12e+00,
410,1.27e+01,1.27e+01,3.04e+00,
411,1.25e+01,1.26e+01,3.12e+00,
412,1.26e+01,1.27e+01,3.04e+00,
413,1.26e+01,1.25e+01,3.12e+00,
414,1.26e+01,1.27e+01,3.12e+00,
415,1.25e+01,1.26e+01,3.04e+00,
416,1.26e+01,1.27e+01,3.04e+00,
417,1.25e+01,1.26e+01,3.12e+00,
418,1.26e+01,1.26e+01,3.04e+00,
419,1.25e+01,1.28e+01,3.12e+00,
420,1.25e+01,1.26e+01,3.04e+00,
421,1.26e+01,1.28e+01,3.12e+00,
422,1.26e+01,1.28e+01,3.04e+00,
423,1.25e+01,1.26e+01,3.12e+00,
424,1.26e+01,1.27e+01,3.12e+00,
425,1.25e+01,1.28e+01,2.96e+00,
426,1.25e+01,1.27e+01,2.96e+00,
427,1.26e+01,1.29e+01,3.12e+00,
428,1.26e+01,1.29e+01,2.96e+00,
429,1.25e+01,1.28e+01,3.12e+00,
430,1.08e+01,1.10e+01,2.96e+00,
431,1.55e+01,1.61e+01,3.12e+00,
432,1.59e+01,1.10e+01,2.96e+00,
433,1.08e+01,1.57e+01,3.12e+00,
434,1.37e+01,1.45e+01,3.12e+00,
435,1.15e+01,1.10e+01,2.96e+00,
436,1.14e+01,1.18e+01,2.96e+00,
437,1.34e+01,1.35e+01,3.12e+00,
438,1.30e+01,1.26e+01,2.96e+00,
439,1.21e+01,1.33e+01,3.12e+00,
440,1.23e+01,1.30e+01,3.04e+00,
441,1.28e+01,1.27e+01,3.12e+00,
442,1.25e+01,1.29e+01,3.04e+00,
443,1.22e+01,1.27e+01,3.12e+00,
444,1.26e+01,1.30e+01,3.12e+00,
445,1.17e+01,1.21e+01,3.04e+00,
446,1.19e+01,1.24e+01,3.12e+00,
447,1.32e+01,1.31e+01,3.04e+00,
448,1.28e+01,1.25e+01,3.04e+00,
449,1.24e+01,1.27e+01,3.12e+00,
450,1.28e+01,1.27e+01,3.04e+00,
451,1.25e+01,1.25e+01,3.12e+00,
452,1.25e+01,1.27e+01,3.12e+00,
453,1.26e+01,1.25e+01,2.96e+00,
454,1.27e+01,1.27e+01,3.12e+00,
455,1.26e+01,1.26e+01,2.96e+00,
456,1.27e+01,1.26e+01,2.96e+00,
457,1.27e+01,1.27e+01,3.04e+00,
458,1.27e+01,1.27e+01,2.96e+00,
459,1.28e+01,1.26e+01,3.04e+00,
460,1.28e+01,1.27e+01,2.96e+00,
461,1.27e+01,1.26e+01,3.04e+00,
462,1.27e+01,1.26e+01,2.96e+00,
463,1.28e+01,1.28e+01,3.04e+00,
464,1.28e+01,1.26e+01,2.96e+00,
465,1.29e+01,1.27e+01,3.04e+00,
466,1.28e+01,1.26e+01,2.96e+00,
467,1.29e+01,1.27e+01,3.04e+00,
468,1.28e+01,1.27e+01,2.96e+00,
469,1.29e+01,1.26e+01,3.04e+00,
470,1.30e+01,1.26e+01,2.96e+00,
471,1.28e+01,1.27e+01,3.04e+00,
472,1.28e+01,1.27e+01,2.96e+00,
473,1.30e+01,1.26e+01,3.04e+00,
474,1.28e+01,1.27e+01,3.04e+00,
475,1.30e+01,1.26e+01,2.96e+00,
476,1.30e+01,1.25e+01,2.96e+00,
477,1.29e+01,1.27e+01,3.04e+00,
478,1.29e+01,1.27e+01,2.96e+00,
479,1.30e+01,1.25e+01,3.04e+00,
480,1.30e+01,1.25e+01,2.96e+00,
481,1.31e+01,1.27e+01,3.04e+00,
482,1.30e+01,1.26e+01,3.04e+00,
483,1.31e+01,1.25e+01,2.96e+00,
484,1.59e+01,1.10e+01,3.04e+00,
485,1.08e+01,1.61e+01,2.80e+00,
486,1.59e+01,1.10e+01,2.96e+00,
487,1.10e+01,1.61e+01,2.88e+00,
488,1.12e+01,1.10e+01,2.96e+00,
489,1.43e+01,1.43e+01,3.04e+00,
490,1.38e+01,1.37e+01,2.96e+00,
491,1.21e+01,1.18e+01,3.04e+00,
492,1.35e+01,1.21e+01,2.96e+00,
493,1.26e+01,1.30e+01,3.04e+00,
494,1.27e+01,1.24e+01,2.96e+00,
495,1.33e+01,1.28e+01,3.04e+00,
496,1.28e+01,1.25e+01,2.96e+00,
497,1.31e+01,1.28e+01,3.04e+00,
498,1.28e+01,1.27e+01,2.96e+00,
499,1.30e+01,1.24e+01,3.12e+00,
500,1.30e+01,1.24e+01,3.12e+00,
501,1.28e+01,1.26e+01,3.04e+00,
502,1.30e+01,1.27e+01,3.04e+00,
503,1.28e+01,1.25e+01,3.12e+00,
504,1.28e+01,1.25e+01,3.04e+00,
505,1.30e+01,1.26e+01,3.12e+00,
506,1.28e+01,1.26e+01,3.12e+00,
507,1.30e+01,1.24e+01,3.04e+00,
508,1.29e+01,1.24e+01,3.04e+00,
509,1.29e+01,1.26e+01,3.12e+00,
510,1.29e+01,1.25e+01,3.04e+00,
511,1.28e+01,1.26e+01,3.12e+00,
512,1.29e+01,1.26e+01,3.04e+00,
513,1.28e+01,1.25e+01,3.12e+00,
514,1.28e+01,1.25e+01,3.04e+00,
515,1.29e+01,1.26e+01,3.12e+00,
516,1.29e+01,1.25e+01,3.12e+00,
517,1.27e+01,1.26e+01,3.04e+00,
518,1.29e+01,1.26e+01,3.04e+00,
519,1.28e+01,1.25e+01,3.12e+00,
520,1.27e+01,1.25e+01,3.12e+00,
521,1.28e+01,1.26e+01,3.04e+00,
522,1.29e+01,1.25e+01,3.04e+00,
523,1.27e+01,1.24e+01,3.12e+00,
524,1.28e+01,1.25e+01,3.04e+00,
525,1.27e+01,1.24e+01,3.20e+00,
526,1.27e+01,1.24e+01,3.04e+00,
527,1.28e+01,1.25e+01,3.20e+00,
528,1.28e+01,1.25e+01,3.20e+00,
529,1.27e+01,1.24e+01,3.04e+00,
530,1.27e+01,1.25e+01,3.20e+00,
531,1.28e+01,1.24e+01,3.12e+00,
532,1.28e+01,1.24e+01,3.20e+00,
533,1.27e+01,1.25e+01,3.12e+00,
534,1.27e+01,1.25e+01,3.12e+00,
535,1.28e+01,1.24e+01,3.20e+00,
536,1.28e+01,1.24e+01,3.20e+00,
537,1.27e+01,1.25e+01,3.12e+00,
538,1.27e+01,1.25e+01,3.20e+00,
539,1.28e+01,1.23e+01,3.12e+00,
540,1.28e+01,1.23e+01,3.20e+00,
541,1.27e+01,1.25e+01,3.12e+00,
542,1.26e+01,1.24e+01,3.20e+00,
543,1.27e+01,1.23e+01,3.12e+00,
544,1.27e+01,1.24e+01,3.12e+00,
545,1.26e+01,1.25e+01,3.20e+00,
546,1.26e+01,1.24e+01,3.20e+00,
547,1.27e+01,1.23e+01,3.12e+00,
548,1.27e+01,1.24e+01,3.20e+00,
549,1.26e+01,1.25e+01,3.12e+00,
550,1.26e+01,1.23e+01,3.12e+00,
551,1.27e+01,1.25e+01,3.20e+00,
552,1.26e+01,1.25e+01,3.20e+00,
553,1.27e+01,1.23e+01,3.12e+00,
554,1.29e+01,1.36e+01,3.20e+00,
555,1.22e+01,1.10e+01,3.12e+00,
556,1.26e+01,1.14e+01,3.12e+00,
557,1.27e+01,1.32e+01,3.20e+00,
558,1.27e+01,1.26e+01,3.12e+00,
559,1.25e+01,1.21e+01,3.20e+00,
560,1.26e+01,1.25e+01,3.12e+00,
561,1.25e+01,1.23e+01,3.20e+00,
562,1.25e+01,1.23e+01,3.12e+00,
563,1.27e+01,1.24e+01,3.20e+00,
564,1.25e+01,1.25e+01,3.12e+00,
565,1.27e+01,1.24e+01,3.20e+00,
566,1.26e+01,1.24e+01,3.20e+00,
567,1.27e+01,1.25e+01,3.04e+00,
568,1.26e+01,1.24e+01,3.20e+00,
569,1.27e+01,1.26e+01,3.04e+00,
570,1.27e+01,1.25e+01,3.04e+00,
571,1.25e+01,1.26e+01,3.12e+00,
572,1.26e+01,1.27e+01,3.04e+00,
573,1.26e+01,1.26e+01,3.12e+00,
574,1.25e+01,1.26e+01,3.04e+00,
575,1.26e+01,1.27e+01,3.12e+00,
576,1.25e+01,1.26e+01,3.12e+00,
577,1.27e+01,1.27e+01,3.04e+00,
578,1.27e+01,1.27e+01,3.04e+00,
579,1.25e+01,1.26e+01,3.12e+00,
580,1.25e+01,1.26e+01,3.04e+00,
581,1.26e+01,1.27e+01,3.12e+00,
582,1.26e+01,1.27e+01,3.04e+00,
583,1.25e+01,1.27e+01,3.12e+00,
584,1.26e+01,1.27e+01,3.04e+00,
585,1.25e+01,1.28e+01,3.12e+00,
586,1.25e+01,1.27e+01,3.04e+00,
587,1.26e+01,1.28e+01,3.12e+00,
588,1.26e+01,1.28e+01,3.12e+00,
589,1.25e+01,1.27e+01,2.96e+00,
590,1.26e+01,1.27e+01,3.12e+00,
591,1.25e+01,1.28e+01,2.96e+00,
592,1.25e+01,1.28e+01,2.96e+00,
593,1.26e+01,1.29e+01,3.12e+00,
594,1.08e+01,1.10e+01,2.96e+00,
595,1.48e+01,1.61e+01,3.12e+00,
596,1.08e+01,1.10e+01,2.96e+00,
597,1.59e+01,1.57e+01,3.12e+00,
598,1.08e+01,1.10e+01,2.96e+00,
599,1.38e+01,1.44e+01,3.12e+00,
600,1.36e+01,1.40e+01,3.12e+00,
601,1.14e+01,1.17e+01,2.96e+00,
602,1.31e+01,1.32e+01,2.96e+00,
603,1.22e+01,1.26e+01,3.12e+00,
604,1.22e+01,1.27e+01,3.04e+00,
605,1.28e+01,1.30e+01,3.12e+00,
606,1.26e+01,1.29e+01,3.04e+00,
607,1.23e+01,1.26e+01,3.12e+00,
608,1.26e+01,1.22e+01,3.04e+00,
609,1.19e+01,1.31e+01,3.12e+00,
610,1.17e+01,1.21e+01,3.04e+00,
611,1.31e+01,1.30e+01,3.12e+00,
612,1.30e+01,1.28e+01,3.12e+00,
613,1.23e+01,1.24e+01,3.04e+00,
614,1.27e+01,1.27e+01,3.04e+00,
615,1.25e+01,1.25e+01,3.12e+00,
616,1.25e+01,1.25e+01,3.04e+00,
617,1.26e+01,1.26e+01,3.12e+00,
618,1.27e+01,1.25e+01,2.96e+00,
619,1.26e+01,1.26e+01,3.12e+00,
620,1.26e+01,1.27e+01,2.96e+00,
621,1.28e+01,1.26e+01,3.12e+00,
622,1.27e+01,1.27e+01,2.96e+00,
623,1.26e+01,1.26e+01,3.04e+00,
624,1.27e+01,1.26e+01,2.96e+00,
